﻿﻿2020-12-17 15:54:05 [StatusChangeEvent]
{
 "Status": 2,
 "Amount": 375,
 "Error": 0
}
2020-12-17 15:54:05 [GlyCashierEvent]
{
 "eventStatusChange": {
  "DeviceStatusID": 3
 },
 "devid": 2,
 "user": ""
}
2020-12-17 15:54:06 [GlyCashierEvent]
{
 "eventStatusChange": {
  "DeviceStatusID": 3
 },
 "devid": 1,
 "user": ""
}
2020-12-17 15:54:06 [StatusChangeEvent]
{
 "Status": 3,
 "Amount": 0,
 "Error": 0
}
2020-12-17 15:54:07 [GlyCashierEvent]
{
 "devid": 1,
 "user": "",
 "eventExist": {
  "DevicePositionId": 1
 }
}
2020-12-17 15:54:08 [GlyCashierEvent]
{
 "eventStatusChange": {
  "DeviceStatusID": 2
 },
 "devid": 1,
 "user": ""
}
2020-12-17 15:54:08 [GlyCashierEvent]
{
 "devid": 1,
 "user": ""
}
2020-12-17 15:54:08 [StatusChangeEvent]
{
 "Status": 4,
 "Amount": 0,
 "Error": 0
}
2020-12-17 15:54:09 [GlyCashierEvent]
{
 "devid": 1,
 "user": "",
 "eventEmpty": {
  "DevicePositionId": 1
 }
}
2020-12-17 15:54:09 [GlyCashierEvent]
{
 "devid": 1,
 "user": "",
 "eventExist": {
  "DevicePositionId": 1
 }
}
2020-12-17 15:54:10 [GlyCashierEvent]
{
 "devid": 1,
 "user": "",
 "eventEmpty": {
  "DevicePositionId": 1
 }
}
2020-12-17 15:54:10 [GlyCashierEvent]
{
 "devid": 1,
 "user": "",
 "eventExist": {
  "DevicePositionId": 2
 }
}
2020-12-17 15:54:10 [HeartBeatEvent]
{
 "SerialNo": 123456789
}
2020-12-17 15:54:10 [GlyCashierEvent]
{
 "devid": 1,
 "user": ""
}
2020-12-17 15:54:11 [GlyCashierEvent]
{
 "eventWaitForRemoving": {
  "DevicePositionId": 2
 },
 "devid": 1,
 "user": ""
}
2020-12-17 15:54:11 [GlyCashierEvent]
{
 "eventStatusChange": {
  "DeviceStatusID": 3
 },
 "devid": 1,
 "user": ""
}
2020-12-17 15:54:11 [StatusChangeEvent]
{
 "Status": 6,
 "Amount": 0,
 "Error": 0
}
2020-12-17 15:54:28 [GlyCashierEvent]
{
 "devid": 1,
 "user": "",
 "eventEmpty": {
  "DevicePositionId": 2
 }
}
2020-12-17 15:54:30 [GlyCashierEvent]
{
 "eventRemoved": {
  "DevicePositionId": 2
 },
 "devid": 1,
 "user": ""
}
2020-12-17 15:54:30 [StatusChangeEvent]
{
 "Status": 4,
 "Amount": 0,
 "Error": 0
}
2020-12-17 15:54:30 [HeartBeatEvent]
{
 "SerialNo": 123456789
}
2020-12-17 15:54:30 [GlyCashierEvent]
{
 "devid": 1,
 "user": ""
}
2020-12-17 15:54:30 [StatusChangeEvent]
{
 "Status": 3,
 "Amount": 0,
 "Error": 0
}
2020-12-17 15:54:32 [GlyCashierEvent]
{
 "devid": 1,
 "user": "",
 "eventExist": {
  "DevicePositionId": 1
 }
}
2020-12-17 15:54:32 [GlyCashierEvent]
{
 "eventStatusChange": {
  "DeviceStatusID": 2
 },
 "devid": 1,
 "user": ""
}
2020-12-17 15:54:32 [GlyCashierEvent]
{
 "devid": 1,
 "user": ""
}
2020-12-17 15:54:32 [StatusChangeEvent]
{
 "Status": 4,
 "Amount": 0,
 "Error": 0
}
2020-12-17 15:54:34 [GlyCashierEvent]
{
 "devid": 1,
 "user": "",
 "eventEmpty": {
  "DevicePositionId": 1
 }
}
2020-12-17 15:54:35 [GlyCashierEvent]
{
 "eventDepositCountMonitor": {
  "Denomination": {
   "Piece": 1,
   "rev": 0,
   "Status": 0,
   "fv": 1000,
   "cc": "EUR",
   "devid": 1
  }
 },
 "devid": 1,
 "user": ""
}
2020-12-17 15:54:35 [StatusChangeEvent]
{
 "Status": 4,
 "Amount": 1000,
 "Error": 0
}
2020-12-17 15:54:36 [GlyCashierEvent]
{
 "eventDepositCountChange": {
  "Denomination": {
   "Piece": 1,
   "rev": 0,
   "Status": 0,
   "fv": 1000,
   "cc": "EUR",
   "devid": 1
  }
 },
 "devid": 1,
 "user": ""
}
2020-12-17 15:54:36 [GlyCashierEvent]
{
 "eventStatusChange": {
  "DeviceStatusID": 3
 },
 "devid": 1,
 "user": ""
}
2020-12-17 15:54:36 [StatusChangeEvent]
{
 "Status": 3,
 "Amount": 1000,
 "Error": 0
}
2020-12-17 15:54:36 [GlyCashierEvent]
{
 "devid": 2,
 "user": ""
}
2020-12-17 15:54:36 [StatusChangeEvent]
{
 "Status": 20,
 "Amount": 1000,
 "Error": 0
}
2020-12-17 15:54:36 [StatusChangeEvent]
{
 "Status": 10,
 "Amount": 0,
 "Error": 0
}
2020-12-17 15:54:36 [StatusChangeEvent]
{
 "Status": 21,
 "Amount": 625,
 "Error": 0
}
2020-12-17 15:54:36 [DispenseDetailsEvent]
{
 "Denomination": [
  {
   "Piece": 1,
   "rev": 0,
   "Status": 0,
   "fv": 500,
   "cc": "EUR",
   "devid": 1
  },{
   "Piece": 1,
   "rev": 0,
   "Status": 0,
   "fv": 100,
   "cc": "EUR",
   "devid": 2
  },{
   "Piece": 1,
   "rev": 0,
   "Status": 0,
   "fv": 20,
   "cc": "EUR",
   "devid": 2
  },{
   "Piece": 1,
   "rev": 0,
   "Status": 0,
   "fv": 5,
   "cc": "EUR",
   "devid": 2
  }]
}
2020-12-17 15:54:37 [StatusChangeEvent]
{
 "Status": 5,
 "Amount": 625,
 "Error": 0
}
2020-12-17 15:54:38 [GlyCashierEvent]
{
 "devid": 1,
 "user": "",
 "eventExist": {
  "DevicePositionId": 2
 }
}
2020-12-17 15:54:38 [GlyCashierEvent]
{
 "eventWaitForRemoving": {
  "DevicePositionId": 2
 },
 "devid": 1,
 "user": ""
}
2020-12-17 15:54:38 [StatusChangeEvent]
{
 "Status": 7,
 "Amount": 0,
 "Error": 0
}
2020-12-17 15:54:48 [GlyCashierEvent]
{
 "devid": 1,
 "user": "",
 "eventEmpty": {
  "DevicePositionId": 2
 }
}
2020-12-17 15:54:50 [HeartBeatEvent]
{
 "SerialNo": 123456789
}
2020-12-17 15:54:51 [GlyCashierEvent]
{
 "eventRemoved": {
  "DevicePositionId": 2
 },
 "devid": 1,
 "user": ""
}
2020-12-17 15:54:51 [GlyCashierEvent]
{
 "devid": 1,
 "user": "",
 "eventLow": {
  "DevicePositionId": 3
 }
}
2020-12-17 15:54:52 [StatusChangeEvent]
{
 "Status": 19,
 "Amount": 0,
 "Error": 0
}
2020-12-17 15:54:52 [ChangeResponse]
{
 "ManualDeposit": 0,
 "Status": {
  "Code": 19,
  "DevStatus": [
   {
    "val": 0,
    "st": 1500,
    "devid": 1
   },{
    "val": 0,
    "st": 1500,
    "devid": 2
   }]
 },
 "result": 0,
 "Amount": 375,
 "Id": "95A3D3A9F4B6",
 "Cash": [
  {
   "Denomination": {
    "Piece": 1,
    "rev": 0,
    "Status": 0,
    "fv": 1000,
    "cc": "EUR",
    "devid": 1
   },
   "type": 1
  },{
   "Denomination": [
    {
     "Piece": 1,
     "rev": 0,
     "Status": 0,
     "fv": 500,
     "cc": "EUR",
     "devid": 1
    },{
     "Piece": 1,
     "rev": 0,
     "Status": 0,
     "fv": 100,
     "cc": "EUR",
     "devid": 2
    },{
     "Piece": 1,
     "rev": 0,
     "Status": 0,
     "fv": 20,
     "cc": "EUR",
     "devid": 2
    },{
     "Piece": 1,
     "rev": 0,
     "Status": 0,
     "fv": 5,
     "cc": "EUR",
     "devid": 2
    }],
   "type": 2
  }],
 "SeqNo": 58
}
2020-12-17 15:54:52 [GlyCashierEvent]
{
 "eventStatusChange": {
  "DeviceStatusID": 1
 },
 "devid": 2,
 "user": ""
}
2020-12-17 15:54:52 [GlyCashierEvent]
{
 "eventStatusChange": {
  "DeviceStatusID": 1
 },
 "devid": 1,
 "user": ""
}
2020-12-17 15:54:53 [StatusChangeEvent]
{
 "Status": 1,
 "Amount": 0,
 "Error": 0
}
2020-12-17 15:54:54 [InventoryResponse]
{
 "CashUnits": [
  {
   "CashUnit": [
    {
     "unitno": 4043,
     "max": 130,
     "st": 1,
     "nf": 117,
     "ne": 13,
     "Denomination": {
      "Piece": 13,
      "rev": 0,
      "Status": 1,
      "fv": 500,
      "cc": "EUR",
      "devid": 1
     }
    },{
     "unitno": 4044,
     "max": 126,
     "st": 2,
     "nf": 113,
     "ne": 12,
     "Denomination": {
      "Piece": 21,
      "rev": 0,
      "Status": 2,
      "fv": 1000,
      "cc": "EUR",
      "devid": 1
     }
    },{
     "unitno": 4045,
     "max": 122,
     "st": 1,
     "nf": 109,
     "ne": 12,
     "Denomination": {
      "Piece": 6,
      "rev": 0,
      "Status": 1,
      "fv": 2000,
      "cc": "EUR",
      "devid": 1
     }
    },{
     "unitno": 4056,
     "max": 400,
     "st": 2,
     "nf": 360,
     "ne": 0,
     "Denomination": {
      "Piece": 0,
      "rev": 0,
      "Status": 2,
      "fv": 0,
      "cc": 0,
      "devid": 1
     }
    },{
     "unitno": 4057,
     "max": 400,
     "st": 2,
     "nf": 360,
     "ne": 0,
     "Denomination": [
      {
       "Piece": 0,
       "rev": 0,
       "Status": 2,
       "fv": 500,
       "cc": "EUR",
       "devid": 1
      },{
       "Piece": 0,
       "rev": 0,
       "Status": 2,
       "fv": 1000,
       "cc": "EUR",
       "devid": 1
      },{
       "Piece": 0,
       "rev": 0,
       "Status": 2,
       "fv": 2000,
       "cc": "EUR",
       "devid": 1
      },{
       "Piece": 0,
       "rev": 0,
       "Status": 2,
       "fv": 5000,
       "cc": "EUR",
       "devid": 1
      },{
       "Piece": 0,
       "rev": 0,
       "Status": 2,
       "fv": 10000,
       "cc": "EUR",
       "devid": 1
      },{
       "Piece": 0,
       "rev": 0,
       "Status": 2,
       "fv": 20000,
       "cc": "EUR",
       "devid": 1
      },{
       "Piece": 0,
       "rev": 0,
       "Status": 2,
       "fv": 50000,
       "cc": "EUR",
       "devid": 1
      }]
    },{
     "unitno": 4058,
     "max": 400,
     "st": 2,
     "nf": 360,
     "ne": 0,
     "Denomination": [
      {
       "Piece": 0,
       "rev": 0,
       "Status": 2,
       "fv": 500,
       "cc": "EUR",
       "devid": 1
      },{
       "Piece": 0,
       "rev": 0,
       "Status": 2,
       "fv": 1000,
       "cc": "EUR",
       "devid": 1
      },{
       "Piece": 0,
       "rev": 0,
       "Status": 2,
       "fv": 2000,
       "cc": "EUR",
       "devid": 1
      },{
       "Piece": 0,
       "rev": 0,
       "Status": 2,
       "fv": 5000,
       "cc": "EUR",
       "devid": 1
      },{
       "Piece": 0,
       "rev": 0,
       "Status": 2,
       "fv": 10000,
       "cc": "EUR",
       "devid": 1
      },{
       "Piece": 0,
       "rev": 0,
       "Status": 2,
       "fv": 20000,
       "cc": "EUR",
       "devid": 1
      },{
       "Piece": 0,
       "rev": 0,
       "Status": 2,
       "fv": 50000,
       "cc": "EUR",
       "devid": 1
      }]
    },{
     "unitno": 4059,
     "max": 400,
     "st": 2,
     "nf": 360,
     "ne": 0,
     "Denomination": [
      {
       "Piece": 0,
       "rev": 0,
       "Status": 2,
       "fv": 500,
       "cc": "EUR",
       "devid": 1
      },{
       "Piece": 0,
       "rev": 0,
       "Status": 2,
       "fv": 1000,
       "cc": "EUR",
       "devid": 1
      },{
       "Piece": 0,
       "rev": 0,
       "Status": 2,
       "fv": 2000,
       "cc": "EUR",
       "devid": 1
      },{
       "Piece": 1,
       "rev": 0,
       "Status": 2,
       "fv": 5000,
       "cc": "EUR",
       "devid": 1
      },{
       "Piece": 0,
       "rev": 0,
       "Status": 2,
       "fv": 10000,
       "cc": "EUR",
       "devid": 1
      },{
       "Piece": 0,
       "rev": 0,
       "Status": 2,
       "fv": 20000,
       "cc": "EUR",
       "devid": 1
      },{
       "Piece": 0,
       "rev": 0,
       "Status": 2,
       "fv": 50000,
       "cc": "EUR",
       "devid": 1
      }]
    },{
     "unitno": 4060,
     "max": 400,
     "st": 2,
     "nf": 360,
     "ne": 0,
     "Denomination": [
      {
       "Piece": 0,
       "rev": 0,
       "Status": 2,
       "fv": 500,
       "cc": "EUR",
       "devid": 1
      },{
       "Piece": 0,
       "rev": 0,
       "Status": 2,
       "fv": 1000,
       "cc": "EUR",
       "devid": 1
      },{
       "Piece": 0,
       "rev": 0,
       "Status": 2,
       "fv": 2000,
       "cc": "EUR",
       "devid": 1
      },{
       "Piece": 0,
       "rev": 0,
       "Status": 2,
       "fv": 5000,
       "cc": "EUR",
       "devid": 1
      },{
       "Piece": 0,
       "rev": 0,
       "Status": 2,
       "fv": 10000,
       "cc": "EUR",
       "devid": 1
      },{
       "Piece": 0,
       "rev": 0,
       "Status": 2,
       "fv": 20000,
       "cc": "EUR",
       "devid": 1
      },{
       "Piece": 0,
       "rev": 0,
       "Status": 2,
       "fv": 50000,
       "cc": "EUR",
       "devid": 1
      }]
    },{
     "unitno": 4061,
     "max": 0,
     "st": 22,
     "nf": 0,
     "ne": 0
    },{
     "unitno": 4062,
     "max": 0,
     "st": 22,
     "nf": 0,
     "ne": 0
    },{
     "unitno": 4063,
     "max": 0,
     "st": 22,
     "nf": 0,
     "ne": 0
    },{
     "unitno": 4074,
     "max": 0,
     "st": 22,
     "nf": 0,
     "ne": 0
    },{
     "unitno": 4075,
     "max": 0,
     "st": 22,
     "nf": 0,
     "ne": 0
    },{
     "unitno": 4076,
     "max": 0,
     "st": 22,
     "nf": 0,
     "ne": 0
    },{
     "unitno": 4069,
     "max": 0,
     "st": 0,
     "nf": 0,
     "ne": 0
    }],
   "devid": 1
  },{
   "CashUnit": [
    {
     "unitno": 4043,
     "max": 150,
     "st": 2,
     "nf": 135,
     "ne": 15,
     "Denomination": {
      "Piece": 123,
      "rev": 0,
      "Status": 2,
      "fv": 100,
      "cc": "EUR",
      "devid": 2
     }
    },{
     "unitno": 4044,
     "max": 250,
     "st": 2,
     "nf": 225,
     "ne": 25,
     "Denomination": {
      "Piece": 70,
      "rev": 0,
      "Status": 2,
      "fv": 2,
      "cc": "EUR",
      "devid": 2
     }
    },{
     "unitno": 4045,
     "max": 150,
     "st": 2,
     "nf": 135,
     "ne": 15,
     "Denomination": {
      "Piece": 84,
      "rev": 0,
      "Status": 2,
      "fv": 200,
      "cc": "EUR",
      "devid": 2
     }
    },{
     "unitno": 4046,
     "max": 160,
     "st": 3,
     "nf": 144,
     "ne": 16,
     "Denomination": {
      "Piece": 152,
      "rev": 0,
      "Status": 3,
      "fv": 20,
      "cc": "EUR",
      "devid": 2
     }
    },{
     "unitno": 4047,
     "max": 200,
     "st": 2,
     "nf": 180,
     "ne": 20,
     "Denomination": {
      "Piece": 76,
      "rev": 0,
      "Status": 2,
      "fv": 5,
      "cc": "EUR",
      "devid": 2
     }
    },{
     "unitno": 4048,
     "max": 150,
     "st": 2,
     "nf": 135,
     "ne": 15,
     "Denomination": {
      "Piece": 113,
      "rev": 0,
      "Status": 2,
      "fv": 50,
      "cc": "EUR",
      "devid": 2
     }
    },{
     "unitno": 4054,
     "max": 350,
     "st": 2,
     "nf": 315,
     "ne": 35,
     "Denomination": {
      "Piece": 61,
      "rev": 0,
      "Status": 2,
      "fv": 1,
      "cc": "EUR",
      "devid": 2
     }
    },{
     "unitno": 4055,
     "max": 200,
     "st": 3,
     "nf": 180,
     "ne": 20,
     "Denomination": {
      "Piece": 193,
      "rev": 0,
      "Status": 3,
      "fv": 10,
      "cc": "EUR",
      "devid": 2
     }
    },{
     "unitno": 4084,
     "max": 0,
     "st": 2,
     "nf": 0,
     "ne": 0,
     "Denomination": [
      {
       "Piece": 0,
       "rev": 0,
       "Status": 2,
       "fv": 200,
       "cc": "EUR",
       "devid": 2
      },{
       "Piece": 0,
       "rev": 0,
       "Status": 2,
       "fv": 100,
       "cc": "EUR",
       "devid": 2
      },{
       "Piece": 0,
       "rev": 0,
       "Status": 2,
       "fv": 50,
       "cc": "EUR",
       "devid": 2
      },{
       "Piece": 136,
       "rev": 0,
       "Status": 2,
       "fv": 20,
       "cc": "EUR",
       "devid": 2
      },{
       "Piece": 112,
       "rev": 0,
       "Status": 2,
       "fv": 10,
       "cc": "EUR",
       "devid": 2
      },{
       "Piece": 0,
       "rev": 0,
       "Status": 2,
       "fv": 5,
       "cc": "EUR",
       "devid": 2
      },{
       "Piece": 0,
       "rev": 0,
       "Status": 2,
       "fv": 2,
       "cc": "EUR",
       "devid": 2
      },{
       "Piece": 0,
       "rev": 0,
       "Status": 2,
       "fv": 1,
       "cc": "EUR",
       "devid": 2
      }]
    },{
     "unitno": 4165,
     "max": 0,
     "st": 22,
     "nf": 0,
     "ne": 0,
     "Denomination": [
      {
       "Piece": 0,
       "rev": 0,
       "Status": 22,
       "fv": 200,
       "cc": "EUR",
       "devid": 2
      },{
       "Piece": 0,
       "rev": 0,
       "Status": 22,
       "fv": 100,
       "cc": "EUR",
       "devid": 2
      },{
       "Piece": 0,
       "rev": 0,
       "Status": 22,
       "fv": 50,
       "cc": "EUR",
       "devid": 2
      },{
       "Piece": 0,
       "rev": 0,
       "Status": 22,
       "fv": 20,
       "cc": "EUR",
       "devid": 2
      },{
       "Piece": 0,
       "rev": 0,
       "Status": 22,
       "fv": 10,
       "cc": "EUR",
       "devid": 2
      },{
       "Piece": 0,
       "rev": 0,
       "Status": 22,
       "fv": 5,
       "cc": "EUR",
       "devid": 2
      },{
       "Piece": 0,
       "rev": 0,
       "Status": 22,
       "fv": 2,
       "cc": "EUR",
       "devid": 2
      },{
       "Piece": 0,
       "rev": 0,
       "Status": 22,
       "fv": 1,
       "cc": "EUR",
       "devid": 2
      }]
    }],
   "devid": 2
  }],
 "result": 0,
 "Id": "ControlPanel",
 "Cash": [
  {
   "Denomination": [
    {
     "Piece": 13,
     "rev": 0,
     "Status": 2,
     "fv": 500,
     "cc": "EUR",
     "devid": 1
    },{
     "Piece": 21,
     "rev": 0,
     "Status": 2,
     "fv": 1000,
     "cc": "EUR",
     "devid": 1
    },{
     "Piece": 6,
     "rev": 0,
     "Status": 2,
     "fv": 2000,
     "cc": "EUR",
     "devid": 1
    },{
     "Piece": 1,
     "rev": 0,
     "Status": 2,
     "fv": 5000,
     "cc": "EUR",
     "devid": 1
    },{
     "Piece": 0,
     "rev": 0,
     "Status": 2,
     "fv": 10000,
     "cc": "EUR",
     "devid": 1
    },{
     "Piece": 0,
     "rev": 0,
     "Status": 2,
     "fv": 20000,
     "cc": "EUR",
     "devid": 1
    },{
     "Piece": 0,
     "rev": 0,
     "Status": 2,
     "fv": 50000,
     "cc": "EUR",
     "devid": 1
    },{
     "Piece": 0,
     "rev": 0,
     "Status": 2,
     "fv": 0,
     "cc": 0,
     "devid": 1
    },{
     "Piece": 123,
     "rev": 0,
     "Status": 2,
     "fv": 100,
     "cc": "EUR",
     "devid": 2
    },{
     "Piece": 70,
     "rev": 0,
     "Status": 2,
     "fv": 2,
     "cc": "EUR",
     "devid": 2
    },{
     "Piece": 84,
     "rev": 0,
     "Status": 2,
     "fv": 200,
     "cc": "EUR",
     "devid": 2
    },{
     "Piece": 288,
     "rev": 0,
     "Status": 2,
     "fv": 20,
     "cc": "EUR",
     "devid": 2
    },{
     "Piece": 76,
     "rev": 0,
     "Status": 2,
     "fv": 5,
     "cc": "EUR",
     "devid": 2
    },{
     "Piece": 113,
     "rev": 0,
     "Status": 2,
     "fv": 50,
     "cc": "EUR",
     "devid": 2
    },{
     "Piece": 61,
     "rev": 0,
     "Status": 2,
     "fv": 1,
     "cc": "EUR",
     "devid": 2
    },{
     "Piece": 305,
     "rev": 0,
     "Status": 2,
     "fv": 10,
     "cc": "EUR",
     "devid": 2
    }],
   "type": 3
  },{
   "Denomination": [
    {
     "Piece": 13,
     "rev": 0,
     "Status": 1,
     "fv": 500,
     "cc": "EUR",
     "devid": 1
    },{
     "Piece": 21,
     "rev": 0,
     "Status": 2,
     "fv": 1000,
     "cc": "EUR",
     "devid": 1
    },{
     "Piece": 6,
     "rev": 0,
     "Status": 1,
     "fv": 2000,
     "cc": "EUR",
     "devid": 1
    },{
     "Piece": 123,
     "rev": 0,
     "Status": 2,
     "fv": 100,
     "cc": "EUR",
     "devid": 2
    },{
     "Piece": 70,
     "rev": 0,
     "Status": 2,
     "fv": 2,
     "cc": "EUR",
     "devid": 2
    },{
     "Piece": 84,
     "rev": 0,
     "Status": 2,
     "fv": 200,
     "cc": "EUR",
     "devid": 2
    },{
     "Piece": 152,
     "rev": 0,
     "Status": 3,
     "fv": 20,
     "cc": "EUR",
     "devid": 2
    },{
     "Piece": 76,
     "rev": 0,
     "Status": 2,
     "fv": 5,
     "cc": "EUR",
     "devid": 2
    },{
     "Piece": 113,
     "rev": 0,
     "Status": 2,
     "fv": 50,
     "cc": "EUR",
     "devid": 2
    },{
     "Piece": 61,
     "rev": 0,
     "Status": 2,
     "fv": 1,
     "cc": "EUR",
     "devid": 2
    },{
     "Piece": 193,
     "rev": 0,
     "Status": 3,
     "fv": 10,
     "cc": "EUR",
     "devid": 2
    }],
   "type": 4
  }],
 "SeqNo": "ControlPane"
}
