﻿﻿2020-11-03 13:08:44 [StatusChangeEvent]
{
 "Status": 2,
 "Amount": 370,
 "Error": 0
}
2020-11-03 13:08:45 [GlyCashierEvent]
{
 "eventStatusChange": {
  "DeviceStatusID": 3
 },
 "devid": 2,
 "user": ""
}
2020-11-03 13:08:45 [GlyCashierEvent]
{
 "eventStatusChange": {
  "DeviceStatusID": 3
 },
 "devid": 1,
 "user": ""
}
2020-11-03 13:08:45 [StatusChangeEvent]
{
 "Status": 3,
 "Amount": 0,
 "Error": 0
}
2020-11-03 13:08:47 [GlyCashierEvent]
{
 "devid": 1,
 "user": "",
 "eventExist": {
  "DevicePositionId": 1
 }
}
2020-11-03 13:08:47 [GlyCashierEvent]
{
 "eventStatusChange": {
  "DeviceStatusID": 2
 },
 "devid": 1,
 "user": ""
}
2020-11-03 13:08:47 [GlyCashierEvent]
{
 "devid": 1,
 "user": ""
}
2020-11-03 13:08:47 [StatusChangeEvent]
{
 "Status": 4,
 "Amount": 0,
 "Error": 0
}
2020-11-03 13:08:49 [GlyCashierEvent]
{
 "devid": 1,
 "user": "",
 "eventEmpty": {
  "DevicePositionId": 1
 }
}
2020-11-03 13:08:50 [GlyCashierEvent]
{
 "eventDepositCountMonitor": {
  "Denomination": {
   "Piece": 1,
   "rev": 0,
   "Status": 0,
   "fv": 500,
   "cc": "EUR",
   "devid": 1
  }
 },
 "devid": 1,
 "user": ""
}
2020-11-03 13:08:50 [GlyCashierEvent]
{
 "devid": 1,
 "user": "",
 "eventExist": {
  "DevicePositionId": 3
 }
}
2020-11-03 13:08:50 [StatusChangeEvent]
{
 "Status": 4,
 "Amount": 500,
 "Error": 0
}
2020-11-03 13:08:50 [GlyCashierEvent]
{
 "eventDepositCountChange": {
  "Denomination": {
   "Piece": 1,
   "rev": 0,
   "Status": 0,
   "fv": 500,
   "cc": "EUR",
   "devid": 1
  }
 },
 "devid": 1,
 "user": ""
}
2020-11-03 13:08:50 [StatusChangeEvent]
{
 "Status": 3,
 "Amount": 500,
 "Error": 0
}
2020-11-03 13:08:51 [GlyCashierEvent]
{
 "eventStatusChange": {
  "DeviceStatusID": 3
 },
 "devid": 1,
 "user": ""
}
2020-11-03 13:08:51 [GlyCashierEvent]
{
 "devid": 2,
 "user": ""
}
2020-11-03 13:08:51 [StatusChangeEvent]
{
 "Status": 20,
 "Amount": 500,
 "Error": 0
}
2020-11-03 13:08:51 [StatusChangeEvent]
{
 "Status": 10,
 "Amount": 0,
 "Error": 0
}
2020-11-03 13:08:51 [StatusChangeEvent]
{
 "Status": 21,
 "Amount": 130,
 "Error": 0
}
2020-11-03 13:08:51 [DispenseDetailsEvent]
{
 "Denomination": [
  {
   "Piece": 1,
   "rev": 0,
   "Status": 0,
   "fv": 100,
   "cc": "EUR",
   "devid": 2
  },{
   "Piece": 1,
   "rev": 0,
   "Status": 0,
   "fv": 20,
   "cc": "EUR",
   "devid": 2
  },{
   "Piece": 1,
   "rev": 0,
   "Status": 0,
   "fv": 10,
   "cc": "EUR",
   "devid": 2
  }]
}
2020-11-03 13:08:51 [StatusChangeEvent]
{
 "Status": 5,
 "Amount": 130,
 "Error": 0
}
2020-11-03 13:08:52 [HeartBeatEvent]
{
 "SerialNo": 123456789
}
2020-11-03 13:08:53 [StatusChangeEvent]
{
 "Status": 19,
 "Amount": 0,
 "Error": 0
}
2020-11-03 13:08:53 [ChangeResponse]
{
 "ManualDeposit": 0,
 "Status": {
  "Code": 19,
  "DevStatus": [
   {
    "val": 0,
    "st": 1500,
    "devid": 1
   },{
    "val": 0,
    "st": 3000,
    "devid": 2
   }]
 },
 "result": 0,
 "Amount": 370,
 "Id": "7515938D8794",
 "Cash": [
  {
   "Denomination": {
    "Piece": 1,
    "rev": 0,
    "Status": 0,
    "fv": 500,
    "cc": "EUR",
    "devid": 1
   },
   "type": 1
  },{
   "Denomination": [
    {
     "Piece": 1,
     "rev": 0,
     "Status": 0,
     "fv": 100,
     "cc": "EUR",
     "devid": 2
    },{
     "Piece": 1,
     "rev": 0,
     "Status": 0,
     "fv": 20,
     "cc": "EUR",
     "devid": 2
    },{
     "Piece": 1,
     "rev": 0,
     "Status": 0,
     "fv": 10,
     "cc": "EUR",
     "devid": 2
    }],
   "type": 2
  }],
 "SeqNo": 21
}
2020-11-03 13:08:53 [GlyCashierEvent]
{
 "eventStatusChange": {
  "DeviceStatusID": 1
 },
 "devid": 1,
 "user": ""
}
2020-11-03 13:08:57 [GlyCashierEvent]
{
 "eventStatusChange": {
  "DeviceStatusID": 1
 },
 "devid": 2,
 "user": ""
}
2020-11-03 13:08:58 [StatusChangeEvent]
{
 "Status": 1,
 "Amount": 0,
 "Error": 0
}
2020-11-03 13:08:58 [InventoryResponse]
{
 "CashUnits": [
  {
   "CashUnit": [
    {
     "unitno": 4043,
     "max": 130,
     "st": 2,
     "nf": 117,
     "ne": 13,
     "Denomination": {
      "Piece": 14,
      "rev": 0,
      "Status": 2,
      "fv": 500,
      "cc": "EUR",
      "devid": 1
     }
    },{
     "unitno": 4044,
     "max": 126,
     "st": 1,
     "nf": 113,
     "ne": 12,
     "Denomination": {
      "Piece": 9,
      "rev": 0,
      "Status": 1,
      "fv": 1000,
      "cc": "EUR",
      "devid": 1
     }
    },{
     "unitno": 4045,
     "max": 122,
     "st": 1,
     "nf": 109,
     "ne": 12,
     "Denomination": {
      "Piece": 1,
      "rev": 0,
      "Status": 1,
      "fv": 2000,
      "cc": "EUR",
      "devid": 1
     }
    },{
     "unitno": 4056,
     "max": 400,
     "st": 0,
     "nf": 360,
     "ne": 0,
     "Denomination": {
      "Piece": 0,
      "rev": 0,
      "Status": 0,
      "fv": 0,
      "cc": 0,
      "devid": 1
     }
    },{
     "unitno": 4057,
     "max": 400,
     "st": 0,
     "nf": 360,
     "ne": 0,
     "Denomination": [
      {
       "Piece": 0,
       "rev": 0,
       "Status": 0,
       "fv": 500,
       "cc": "EUR",
       "devid": 1
      },{
       "Piece": 0,
       "rev": 0,
       "Status": 0,
       "fv": 1000,
       "cc": "EUR",
       "devid": 1
      },{
       "Piece": 0,
       "rev": 0,
       "Status": 0,
       "fv": 2000,
       "cc": "EUR",
       "devid": 1
      },{
       "Piece": 0,
       "rev": 0,
       "Status": 0,
       "fv": 5000,
       "cc": "EUR",
       "devid": 1
      },{
       "Piece": 0,
       "rev": 0,
       "Status": 0,
       "fv": 10000,
       "cc": "EUR",
       "devid": 1
      },{
       "Piece": 0,
       "rev": 0,
       "Status": 0,
       "fv": 20000,
       "cc": "EUR",
       "devid": 1
      },{
       "Piece": 0,
       "rev": 0,
       "Status": 0,
       "fv": 50000,
       "cc": "EUR",
       "devid": 1
      }]
    },{
     "unitno": 4058,
     "max": 400,
     "st": 0,
     "nf": 360,
     "ne": 0,
     "Denomination": [
      {
       "Piece": 0,
       "rev": 0,
       "Status": 0,
       "fv": 500,
       "cc": "EUR",
       "devid": 1
      },{
       "Piece": 0,
       "rev": 0,
       "Status": 0,
       "fv": 1000,
       "cc": "EUR",
       "devid": 1
      },{
       "Piece": 0,
       "rev": 0,
       "Status": 0,
       "fv": 2000,
       "cc": "EUR",
       "devid": 1
      },{
       "Piece": 0,
       "rev": 0,
       "Status": 0,
       "fv": 5000,
       "cc": "EUR",
       "devid": 1
      },{
       "Piece": 0,
       "rev": 0,
       "Status": 0,
       "fv": 10000,
       "cc": "EUR",
       "devid": 1
      },{
       "Piece": 0,
       "rev": 0,
       "Status": 0,
       "fv": 20000,
       "cc": "EUR",
       "devid": 1
      },{
       "Piece": 0,
       "rev": 0,
       "Status": 0,
       "fv": 50000,
       "cc": "EUR",
       "devid": 1
      }]
    },{
     "unitno": 4059,
     "max": 400,
     "st": 0,
     "nf": 360,
     "ne": 0,
     "Denomination": [
      {
       "Piece": 0,
       "rev": 0,
       "Status": 0,
       "fv": 500,
       "cc": "EUR",
       "devid": 1
      },{
       "Piece": 0,
       "rev": 0,
       "Status": 0,
       "fv": 1000,
       "cc": "EUR",
       "devid": 1
      },{
       "Piece": 0,
       "rev": 0,
       "Status": 0,
       "fv": 2000,
       "cc": "EUR",
       "devid": 1
      },{
       "Piece": 0,
       "rev": 0,
       "Status": 0,
       "fv": 5000,
       "cc": "EUR",
       "devid": 1
      },{
       "Piece": 0,
       "rev": 0,
       "Status": 0,
       "fv": 10000,
       "cc": "EUR",
       "devid": 1
      },{
       "Piece": 0,
       "rev": 0,
       "Status": 0,
       "fv": 20000,
       "cc": "EUR",
       "devid": 1
      },{
       "Piece": 0,
       "rev": 0,
       "Status": 0,
       "fv": 50000,
       "cc": "EUR",
       "devid": 1
      }]
    },{
     "unitno": 4060,
     "max": 400,
     "st": 0,
     "nf": 360,
     "ne": 0,
     "Denomination": [
      {
       "Piece": 0,
       "rev": 0,
       "Status": 0,
       "fv": 500,
       "cc": "EUR",
       "devid": 1
      },{
       "Piece": 0,
       "rev": 0,
       "Status": 0,
       "fv": 1000,
       "cc": "EUR",
       "devid": 1
      },{
       "Piece": 0,
       "rev": 0,
       "Status": 0,
       "fv": 2000,
       "cc": "EUR",
       "devid": 1
      },{
       "Piece": 0,
       "rev": 0,
       "Status": 0,
       "fv": 5000,
       "cc": "EUR",
       "devid": 1
      },{
       "Piece": 0,
       "rev": 0,
       "Status": 0,
       "fv": 10000,
       "cc": "EUR",
       "devid": 1
      },{
       "Piece": 0,
       "rev": 0,
       "Status": 0,
       "fv": 20000,
       "cc": "EUR",
       "devid": 1
      },{
       "Piece": 0,
       "rev": 0,
       "Status": 0,
       "fv": 50000,
       "cc": "EUR",
       "devid": 1
      }]
    },{
     "unitno": 4061,
     "max": 0,
     "st": 22,
     "nf": 0,
     "ne": 0
    },{
     "unitno": 4062,
     "max": 0,
     "st": 22,
     "nf": 0,
     "ne": 0
    },{
     "unitno": 4063,
     "max": 0,
     "st": 22,
     "nf": 0,
     "ne": 0
    },{
     "unitno": 4074,
     "max": 0,
     "st": 22,
     "nf": 0,
     "ne": 0
    },{
     "unitno": 4075,
     "max": 0,
     "st": 22,
     "nf": 0,
     "ne": 0
    },{
     "unitno": 4076,
     "max": 0,
     "st": 22,
     "nf": 0,
     "ne": 0
    },{
     "unitno": 4069,
     "max": 0,
     "st": 0,
     "nf": 0,
     "ne": 0
    }],
   "devid": 1
  },{
   "CashUnit": [
    {
     "unitno": 4043,
     "max": 150,
     "st": 2,
     "nf": 135,
     "ne": 15,
     "Denomination": {
      "Piece": 54,
      "rev": 0,
      "Status": 2,
      "fv": 100,
      "cc": "EUR",
      "devid": 2
     }
    },{
     "unitno": 4044,
     "max": 250,
     "st": 1,
     "nf": 225,
     "ne": 25,
     "Denomination": {
      "Piece": 14,
      "rev": 0,
      "Status": 1,
      "fv": 2,
      "cc": "EUR",
      "devid": 2
     }
    },{
     "unitno": 4045,
     "max": 150,
     "st": 2,
     "nf": 135,
     "ne": 15,
     "Denomination": {
      "Piece": 19,
      "rev": 0,
      "Status": 2,
      "fv": 200,
      "cc": "EUR",
      "devid": 2
     }
    },{
     "unitno": 4046,
     "max": 160,
     "st": 2,
     "nf": 144,
     "ne": 16,
     "Denomination": {
      "Piece": 124,
      "rev": 0,
      "Status": 2,
      "fv": 20,
      "cc": "EUR",
      "devid": 2
     }
    },{
     "unitno": 4047,
     "max": 200,
     "st": 2,
     "nf": 180,
     "ne": 20,
     "Denomination": {
      "Piece": 155,
      "rev": 0,
      "Status": 2,
      "fv": 5,
      "cc": "EUR",
      "devid": 2
     }
    },{
     "unitno": 4048,
     "max": 150,
     "st": 2,
     "nf": 135,
     "ne": 15,
     "Denomination": {
      "Piece": 105,
      "rev": 0,
      "Status": 2,
      "fv": 50,
      "cc": "EUR",
      "devid": 2
     }
    },{
     "unitno": 4054,
     "max": 350,
     "st": 1,
     "nf": 315,
     "ne": 35,
     "Denomination": {
      "Piece": 22,
      "rev": 0,
      "Status": 1,
      "fv": 1,
      "cc": "EUR",
      "devid": 2
     }
    },{
     "unitno": 4055,
     "max": 200,
     "st": 2,
     "nf": 180,
     "ne": 20,
     "Denomination": {
      "Piece": 96,
      "rev": 0,
      "Status": 2,
      "fv": 10,
      "cc": "EUR",
      "devid": 2
     }
    },{
     "unitno": 4084,
     "max": 0,
     "st": 2,
     "nf": 0,
     "ne": 0,
     "Denomination": [
      {
       "Piece": 0,
       "rev": 0,
       "Status": 2,
       "fv": 200,
       "cc": "EUR",
       "devid": 2
      },{
       "Piece": 0,
       "rev": 0,
       "Status": 2,
       "fv": 100,
       "cc": "EUR",
       "devid": 2
      },{
       "Piece": 0,
       "rev": 0,
       "Status": 2,
       "fv": 50,
       "cc": "EUR",
       "devid": 2
      },{
       "Piece": 20,
       "rev": 0,
       "Status": 2,
       "fv": 20,
       "cc": "EUR",
       "devid": 2
      },{
       "Piece": 24,
       "rev": 0,
       "Status": 2,
       "fv": 10,
       "cc": "EUR",
       "devid": 2
      },{
       "Piece": 0,
       "rev": 0,
       "Status": 2,
       "fv": 5,
       "cc": "EUR",
       "devid": 2
      },{
       "Piece": 0,
       "rev": 0,
       "Status": 2,
       "fv": 2,
       "cc": "EUR",
       "devid": 2
      },{
       "Piece": 0,
       "rev": 0,
       "Status": 2,
       "fv": 1,
       "cc": "EUR",
       "devid": 2
      }]
    },{
     "unitno": 4165,
     "max": 0,
     "st": 22,
     "nf": 0,
     "ne": 0,
     "Denomination": [
      {
       "Piece": 0,
       "rev": 0,
       "Status": 22,
       "fv": 200,
       "cc": "EUR",
       "devid": 2
      },{
       "Piece": 0,
       "rev": 0,
       "Status": 22,
       "fv": 100,
       "cc": "EUR",
       "devid": 2
      },{
       "Piece": 0,
       "rev": 0,
       "Status": 22,
       "fv": 50,
       "cc": "EUR",
       "devid": 2
      },{
       "Piece": 0,
       "rev": 0,
       "Status": 22,
       "fv": 20,
       "cc": "EUR",
       "devid": 2
      },{
       "Piece": 0,
       "rev": 0,
       "Status": 22,
       "fv": 10,
       "cc": "EUR",
       "devid": 2
      },{
       "Piece": 0,
       "rev": 0,
       "Status": 22,
       "fv": 5,
       "cc": "EUR",
       "devid": 2
      },{
       "Piece": 0,
       "rev": 0,
       "Status": 22,
       "fv": 2,
       "cc": "EUR",
       "devid": 2
      },{
       "Piece": 0,
       "rev": 0,
       "Status": 22,
       "fv": 1,
       "cc": "EUR",
       "devid": 2
      }]
    }],
   "devid": 2
  }],
 "result": 0,
 "Id": "ControlPanel",
 "Cash": [
  {
   "Denomination": [
    {
     "Piece": 14,
     "rev": 0,
     "Status": 2,
     "fv": 500,
     "cc": "EUR",
     "devid": 1
    },{
     "Piece": 9,
     "rev": 0,
     "Status": 1,
     "fv": 1000,
     "cc": "EUR",
     "devid": 1
    },{
     "Piece": 1,
     "rev": 0,
     "Status": 1,
     "fv": 2000,
     "cc": "EUR",
     "devid": 1
    },{
     "Piece": 0,
     "rev": 0,
     "Status": 0,
     "fv": 5000,
     "cc": "EUR",
     "devid": 1
    },{
     "Piece": 0,
     "rev": 0,
     "Status": 0,
     "fv": 10000,
     "cc": "EUR",
     "devid": 1
    },{
     "Piece": 0,
     "rev": 0,
     "Status": 0,
     "fv": 20000,
     "cc": "EUR",
     "devid": 1
    },{
     "Piece": 0,
     "rev": 0,
     "Status": 0,
     "fv": 50000,
     "cc": "EUR",
     "devid": 1
    },{
     "Piece": 0,
     "rev": 0,
     "Status": 0,
     "fv": 0,
     "cc": 0,
     "devid": 1
    },{
     "Piece": 54,
     "rev": 0,
     "Status": 2,
     "fv": 100,
     "cc": "EUR",
     "devid": 2
    },{
     "Piece": 14,
     "rev": 0,
     "Status": 2,
     "fv": 2,
     "cc": "EUR",
     "devid": 2
    },{
     "Piece": 19,
     "rev": 0,
     "Status": 2,
     "fv": 200,
     "cc": "EUR",
     "devid": 2
    },{
     "Piece": 144,
     "rev": 0,
     "Status": 2,
     "fv": 20,
     "cc": "EUR",
     "devid": 2
    },{
     "Piece": 155,
     "rev": 0,
     "Status": 2,
     "fv": 5,
     "cc": "EUR",
     "devid": 2
    },{
     "Piece": 105,
     "rev": 0,
     "Status": 2,
     "fv": 50,
     "cc": "EUR",
     "devid": 2
    },{
     "Piece": 22,
     "rev": 0,
     "Status": 2,
     "fv": 1,
     "cc": "EUR",
     "devid": 2
    },{
     "Piece": 120,
     "rev": 0,
     "Status": 2,
     "fv": 10,
     "cc": "EUR",
     "devid": 2
    }],
   "type": 3
  },{
   "Denomination": [
    {
     "Piece": 14,
     "rev": 0,
     "Status": 2,
     "fv": 500,
     "cc": "EUR",
     "devid": 1
    },{
     "Piece": 9,
     "rev": 0,
     "Status": 1,
     "fv": 1000,
     "cc": "EUR",
     "devid": 1
    },{
     "Piece": 1,
     "rev": 0,
     "Status": 1,
     "fv": 2000,
     "cc": "EUR",
     "devid": 1
    },{
     "Piece": 54,
     "rev": 0,
     "Status": 2,
     "fv": 100,
     "cc": "EUR",
     "devid": 2
    },{
     "Piece": 14,
     "rev": 0,
     "Status": 1,
     "fv": 2,
     "cc": "EUR",
     "devid": 2
    },{
     "Piece": 19,
     "rev": 0,
     "Status": 2,
     "fv": 200,
     "cc": "EUR",
     "devid": 2
    },{
     "Piece": 124,
     "rev": 0,
     "Status": 2,
     "fv": 20,
     "cc": "EUR",
     "devid": 2
    },{
     "Piece": 155,
     "rev": 0,
     "Status": 2,
     "fv": 5,
     "cc": "EUR",
     "devid": 2
    },{
     "Piece": 105,
     "rev": 0,
     "Status": 2,
     "fv": 50,
     "cc": "EUR",
     "devid": 2
    },{
     "Piece": 22,
     "rev": 0,
     "Status": 1,
     "fv": 1,
     "cc": "EUR",
     "devid": 2
    },{
     "Piece": 96,
     "rev": 0,
     "Status": 2,
     "fv": 10,
     "cc": "EUR",
     "devid": 2
    }],
   "type": 4
  }],
 "SeqNo": "ControlPane"
}
